CaloClusterEff                      SUCCESS Booked 1 N-Tuples and 0 Event Tag Collections
CaloClusterEff                      SUCCESS List of booked N-Tuples in directory "FILE1/CaloClusterEff"
CaloClusterEff                      SUCCESS  ID=clusEff       Title="clusEff"                                 #items=13 {endVtx_X,endVtx_Y,endVtx_Z,endVtx_type,max_fMCP,f_cl,cl_e,cl_et,cl_x,cl_y,cl_z,cl}
RFileCnv                               INFO dumping contents of /NTUPLES/FILE1
TFile: name=Hlt1RecoAllenCaloEfficiencyNTuple.root, title=Gaudi Trees, option=CREATE
NTupleSvc                              INFO NTuples saved successfully
ApplicationMgr                         INFO Application Manager Finalized successfully
ApplicationMgr                         INFO Application Manager Terminated successfully
CaloClusterEff                         INFO Number of counters : 5
 |    Counter                                      |     #     |    sum     | mean/eff^* | rms/err^*  |     min     |     max     |
 | "# reconstructed"                               |      1000 |        342 |    0.34200 |    0.47438 |      0.0000 |      1.0000 |
 | "# reconstructible"                             |      1000 |        429 |    0.42900 |    0.49896 |      0.0000 |      2.0000 |
 | "# signal"                                      |      1000 |       2028 |     2.0280 |    0.25143 |      2.0000 |      6.0000 |
 | "More than 1 endVertex found for signal"        |         2 |
 |*"reco efficiency"                               |       426 |        342 |( 80.28169 +- 1.927695)% |
CaloClusterMCTruth_e3b1817b            INFO Number of counters : 2
 |    Counter                                      |     #     |    sum     | mean/eff^* | rms/err^*  |     min     |     max     |
 | "#CC2MC links"                                  |      1000 |    1148188 |     1148.2 |
 |*"No MC information for the cluster is found"    |     66254 |          2 |(0.003018686 +- 0.002134501)% |
CaloFutureClusterMonitor_bee57f04      INFO Number of counters : 1
 |    Counter                                      |     #     |    sum     | mean/eff^* | rms/err^*  |     min     |     max     |
 | "# clusters over threshold"                     |      1000 |      66254 |     66.254 |     28.546 |      3.0000 |      181.00 |
CaloFutureDigit2MCLinks2Table_b7...    INFO Number of counters : 2
 |    Counter                                      |     #     |    sum     | mean/eff^* | rms/err^*  |     min     |     max     |
 | "#CD2MC links"                                  |      1000 |          0 |     0.0000 |
 | "Empty Relation table"                          |      1000 |
HLTControlFlowMgr                      INFO Number of counters : 1
 |    Counter                                      |     #     |    sum     | mean/eff^* | rms/err^*  |     min     |     max     |
 | "Processed events"                              |      1000 |
