ApplicationMgr                         INFO Application Manager Finalized successfully
ApplicationMgr                         INFO Application Manager Terminated successfully
BeamSpotMonitor                        INFO Number of counters : 12
 |    Counter                                      |     #     |    sum     | mean/eff^* | rms/err^*  |     min     |     max     |
 | "Cached PV x * y for covariance"                |       200 |   370.1977 |     1.8510 |
 | "Cached PV x position"                          |       200 |   257.9091 |     1.2895 |   0.036314 |
 | "Cached PV y * z for covariance"                |       200 |   5726.828 |     28.634 |
 | "Cached PV y position"                          |       200 |   287.0678 |     1.4353 |   0.042549 |
 | "Cached PV z * x for covariance"                |       200 |   5308.107 |     26.541 |
 | "Cached PV z position"                          |       200 |   4133.005 |     20.665 |     44.145 |
 | "PV x * y for covariance"                       |        84 |   154.9862 |     1.8451 |
 | "PV x position"                                 |        84 |   108.2029 |     1.2881 |   0.038300 |
 | "PV y * z for covariance"                       |        84 |   2977.152 |     35.442 |
 | "PV y position"                                 |        84 |   120.2879 |     1.4320 |   0.035176 |
 | "PV z * x for covariance"                       |        84 |   2698.604 |     32.126 |
 | "PV z position"                                 |        84 |   2134.303 |     25.408 |     44.932 |
DefaultGECFilter                       INFO Number of counters : 1
 |    Counter                                      |     #     |    sum     | mean/eff^* | rms/err^*  |     min     |     max     |
 | "Nb Events Processed"                           |       500 |
HLTControlFlowMgr                      INFO Number of counters : 1
 |    Counter                                      |     #     |    sum     | mean/eff^* | rms/err^*  |     min     |     max     |
 | "Processed events"                              |       500 |
MDFIOAlg                               INFO Number of counters : 1
 |    Counter                                      |     #     |    sum     | mean/eff^* | rms/err^*  |     min     |     max     |
 | "#banks in raw event"                           |       500 |     315037 |     630.07 |    0.26177 |      630.00 |      631.00 |
PatPV3DFuture_e545f69d                 INFO Number of counters : 1
 |    Counter                                      |     #     |    sum     | mean/eff^* | rms/err^*  |     min     |     max     |
 | "Nb PVs"                                        |       500 |        824 |     1.6480 |
VeloRetinaClusterTrackingSIMD_b9...    INFO Number of counters : 2
 |    Counter                                      |     #     |    sum     | mean/eff^* | rms/err^*  |     min     |     max     |
 | "Nb of Produced Clusters"                       |       500 |     173234 |     346.47 |
 | "Nb of Produced Tracks"                         |       500 |      23181 |     46.362 |
VertexListRefiner_1e6f513d             INFO Number of counters : 2
 |    Counter                                      |     #     |    sum     | mean/eff^* | rms/err^*  |     min     |     max     |
 | "#passed"                                       |       500 |        484 |    0.96800 |    0.68919 |      0.0000 |      3.0000 |
 | "#total"                                        |       500 |        824 |     1.6480 |    0.89894 |      0.0000 |      4.0000 |
fromPrVeloTracksV1TracksMerger_9...    INFO Number of counters : 1
 |    Counter                                      |     #     |    sum     | mean/eff^* | rms/err^*  |     min     |     max     |
 | "Nb of converted Tracks"                        |       500 |      23181 |     46.362 |
