ForwardTrackChecker_f18d96be           INFO Results
ForwardTrackChecker_f18d96be           INFO **** Forward                                    4192 tracks including            297 ghosts [ 7.08 %], Event average  6.11 % ****
ForwardTrackChecker_f18d96be           INFO   01_long                                  :    3588 from     4307 [ 83.31 %]      6 clones [ 0.17 %], purity: 99.33 %, hitEff: 98.49 %
ForwardTrackChecker_f18d96be           INFO   02_long_P>5GeV                           :    2443 from     2741 [ 89.13 %]      3 clones [ 0.12 %], purity: 99.41 %, hitEff: 98.82 %
ForwardTrackChecker_f18d96be           INFO   03_long_strange                          :     171 from      224 [ 76.34 %]      0 clones [ 0.00 %], purity: 99.19 %, hitEff: 98.65 %
ForwardTrackChecker_f18d96be           INFO   04_long_strange_P>5GeV                   :      90 from      107 [ 84.11 %]      0 clones [ 0.00 %], purity: 99.44 %, hitEff: 99.53 %
ForwardTrackChecker_f18d96be           INFO   05_long_fromD                            :      39 from       47 [ 82.98 %]      0 clones [ 0.00 %], purity: 99.46 %, hitEff: 97.70 %
ForwardTrackChecker_f18d96be           INFO   06_long_fromD_P>5GeV                     :      25 from       30 [ 83.33 %]      0 clones [ 0.00 %], purity: 99.15 %, hitEff: 97.72 %
ForwardTrackChecker_f18d96be           INFO   07_long_electrons                        :     163 from      295 [ 55.25 %]      0 clones [ 0.00 %], purity: 97.54 %, hitEff: 97.58 %
ForwardTrackChecker_f18d96be           INFO   07_long_electrons_pairprod               :     153 from      282 [ 54.26 %]      0 clones [ 0.00 %], purity: 97.52 %, hitEff: 97.42 %
ForwardTrackChecker_f18d96be           INFO   10_long_fromD_P>3GeV_Pt>0.5GeV           :      24 from       26 [ 92.31 %]      0 clones [ 0.00 %], purity: 99.69 %, hitEff: 97.30 %
ForwardTrackChecker_f18d96be           INFO   10_long_strange_P>3GeV_Pt>0.5GeV         :      39 from       50 [ 78.00 %]      0 clones [ 0.00 %], purity: 99.59 %, hitEff: 99.57 %
ForwardTrackChecker_f18d96be           INFO
ForwardTrackChecker_fa0d0a52           INFO Results
ForwardTrackChecker_fa0d0a52           INFO **** Forward                                    4380 tracks including            340 ghosts [ 7.76 %], Event average  6.66 % ****
ForwardTrackChecker_fa0d0a52           INFO   01_long                                  :    3723 from     4307 [ 86.44 %]      6 clones [ 0.16 %], purity: 99.30 %, hitEff: 98.46 %
ForwardTrackChecker_fa0d0a52           INFO   02_long_P>5GeV                           :    2529 from     2741 [ 92.27 %]      3 clones [ 0.12 %], purity: 99.40 %, hitEff: 98.84 %
ForwardTrackChecker_fa0d0a52           INFO   03_long_strange                          :     173 from      224 [ 77.23 %]      0 clones [ 0.00 %], purity: 99.19 %, hitEff: 98.67 %
ForwardTrackChecker_fa0d0a52           INFO   04_long_strange_P>5GeV                   :      92 from      107 [ 85.98 %]      0 clones [ 0.00 %], purity: 99.46 %, hitEff: 99.54 %
ForwardTrackChecker_fa0d0a52           INFO   05_long_fromD                            :      44 from       47 [ 93.62 %]      0 clones [ 0.00 %], purity: 99.44 %, hitEff: 97.61 %
ForwardTrackChecker_fa0d0a52           INFO   06_long_fromD_P>5GeV                     :      29 from       30 [ 96.67 %]      0 clones [ 0.00 %], purity: 99.15 %, hitEff: 98.03 %
ForwardTrackChecker_fa0d0a52           INFO   07_long_electrons                        :     168 from      295 [ 56.95 %]      0 clones [ 0.00 %], purity: 97.51 %, hitEff: 97.74 %
ForwardTrackChecker_fa0d0a52           INFO   07_long_electrons_pairprod               :     158 from      282 [ 56.03 %]      0 clones [ 0.00 %], purity: 97.48 %, hitEff: 97.60 %
ForwardTrackChecker_fa0d0a52           INFO   10_long_fromD_P>3GeV_Pt>0.5GeV           :      26 from       26 [100.00 %]      0 clones [ 0.00 %], purity: 99.59 %, hitEff: 97.51 %
ForwardTrackChecker_fa0d0a52           INFO   10_long_strange_P>3GeV_Pt>0.5GeV         :      40 from       50 [ 80.00 %]      0 clones [ 0.00 %], purity: 99.60 %, hitEff: 99.58 %
ForwardTrackChecker_fa0d0a52           INFO
ForwardUTHitsChecker_fcfbe342          INFO Results
ForwardUTHitsChecker_fcfbe342          INFO **** UT Efficiency for /Event/fromPrForwardTracksFromVeloUTV1Tracks_2b41b9b0/OutputTracksLocation ****     297 ghost,  2.86 UT per track
ForwardUTHitsChecker_fcfbe342          INFO                                  01_long :  3594 tr  3.83 from  4.08 mcUT [ 93.9 %]  0.10 ghost hits on real tracks [ 2.5 %]
ForwardUTHitsChecker_fcfbe342          INFO                             01_long >3UT :  3566 tr  3.85 from  4.09 mcUT [ 94.2 %]  0.09 ghost hits on real tracks [ 2.3 %]
ForwardUTHitsChecker_fcfbe342          INFO                           02_long_P>5GeV :  2446 tr  3.80 from  4.07 mcUT [ 93.2 %]  0.08 ghost hits on real tracks [ 2.1 %]
ForwardUTHitsChecker_fcfbe342          INFO                      02_long_P>5GeV >3UT :  2422 tr  3.83 from  4.09 mcUT [ 93.6 %]  0.08 ghost hits on real tracks [ 2.0 %]
ForwardUTHitsChecker_fcfbe342          INFO
ForwardUTHitsChecker_ffdc062b          INFO Results
ForwardUTHitsChecker_ffdc062b          INFO **** UT Efficiency for /Event/fromPrForwardTracksFromVeloUTV1Tracks_7522eca3/OutputTracksLocation ****     340 ghost,  2.78 UT per track
ForwardUTHitsChecker_ffdc062b          INFO                                  01_long :  3729 tr  3.80 from  4.07 mcUT [ 93.4 %]  0.10 ghost hits on real tracks [ 2.7 %]
ForwardUTHitsChecker_ffdc062b          INFO                             01_long >3UT :  3694 tr  3.83 from  4.09 mcUT [ 93.8 %]  0.10 ghost hits on real tracks [ 2.5 %]
ForwardUTHitsChecker_ffdc062b          INFO                           02_long_P>5GeV :  2532 tr  3.77 from  4.06 mcUT [ 92.8 %]  0.09 ghost hits on real tracks [ 2.3 %]
ForwardUTHitsChecker_ffdc062b          INFO                      02_long_P>5GeV >3UT :  2502 tr  3.81 from  4.09 mcUT [ 93.3 %]  0.08 ghost hits on real tracks [ 2.2 %]
ForwardUTHitsChecker_ffdc062b          INFO
ApplicationMgr                         INFO Application Manager Finalized successfully
ApplicationMgr                         INFO Application Manager Terminated successfully
DefaultGECFilter                       INFO Number of counters : 2
 |    Counter                                      |     #     |    sum     | mean/eff^* | rms/err^*  |     min     |     max     |
 | "Nb Events Processed"                           |       100 |
 | "Nb events removed"                             |        11 |
ForwardTrackChecker_f18d96be.LoK...    INFO Number of counters : 1
 |    Counter                                      |     #     |    sum     | mean/eff^* | rms/err^*  |     min     |     max     |
ForwardTrackChecker_fa0d0a52.LoK...    INFO Number of counters : 1
 |    Counter                                      |     #     |    sum     | mean/eff^* | rms/err^*  |     min     |     max     |
ForwardUTHitsChecker_fcfbe342.Lo...    INFO Number of counters : 1
 |    Counter                                      |     #     |    sum     | mean/eff^* | rms/err^*  |     min     |     max     |
ForwardUTHitsChecker_ffdc062b.Lo...    INFO Number of counters : 1
 |    Counter                                      |     #     |    sum     | mean/eff^* | rms/err^*  |     min     |     max     |
HLTControlFlowMgr                      INFO Number of counters : 1
 |    Counter                                      |     #     |    sum     | mean/eff^* | rms/err^*  |     min     |     max     |
 | "Processed events"                              |       100 |
PrForwardTracking_4c442627             INFO Number of counters : 10
 |    Counter                                      |     #     |    sum     | mean/eff^* | rms/err^*  |     min     |     max     |
 | "Accepted input tracks"                         |        89 |       8069 |     90.663 |
 | "Created long tracks"                           |        89 |       4192 |     47.101 |
 | "Input tracks"                                  |        89 |       8074 |     90.719 |
 | "Number of candidate bins per track"            |      8069 |      16001 |     1.9830 |     2.6052 |      0.0000 |      30.000 |
 | "Number of complete candidates/track 1st Loop"  |      6296 |       4162 |    0.66105 |    0.51943 |      0.0000 |      4.0000 |
 | "Number of complete candidates/track 2nd Loop"  |      2547 |        238 |   0.093443 |    0.29640 |      0.0000 |      3.0000 |
 | "Number of x candidates per track 1st Loop"     |      6296 |       5836 |    0.92694 |    0.70715 |
 | "Number of x candidates per track 2nd Loop"     |      2547 |       3537 |     1.3887 |     1.5482 |
 | "Percentage second loop execution"              |      6296 |       2547 |    0.40454 |
 | "Removed duplicates"                            |        89 |        114 |     1.2809 |
PrForwardTracking_4c442627.PrAdd...    INFO Number of counters : 2
 |    Counter                                      |     #     |    sum     | mean/eff^* | rms/err^*  |     min     |     max     |
 | "#UT hits added"                                |      3987 |      16082 |     4.0336 |
 | "#tracks with hits added"                       |      3987 |
PrForwardTracking_7006312a             INFO Number of counters : 10
 |    Counter                                      |     #     |    sum     | mean/eff^* | rms/err^*  |     min     |     max     |
 | "Accepted input tracks"                         |        89 |       8069 |     90.663 |
 | "Created long tracks"                           |        89 |       4380 |     49.213 |
 | "Input tracks"                                  |        89 |       8074 |     90.719 |
 | "Number of candidate bins per track"            |      8069 |      39427 |     4.8862 |     4.6352 |      0.0000 |      31.000 |
 | "Number of complete candidates/track 1st Loop"  |      7241 |       4411 |    0.60917 |    0.55195 |      0.0000 |      4.0000 |
 | "Number of complete candidates/track 2nd Loop"  |      3351 |        279 |   0.083259 |    0.28056 |      0.0000 |      3.0000 |
 | "Number of x candidates per track 1st Loop"     |      7241 |       9775 |     1.3500 |     1.1902 |
 | "Number of x candidates per track 2nd Loop"     |      3351 |       7528 |     2.2465 |     2.2475 |
 | "Percentage second loop execution"              |      7241 |       3351 |    0.46278 |
 | "Removed duplicates"                            |        89 |        152 |     1.7079 |
PrForwardTracking_7006312a.PrAdd...    INFO Number of counters : 2
 |    Counter                                      |     #     |    sum     | mean/eff^* | rms/err^*  |     min     |     max     |
 | "#UT hits added"                                |      4140 |      16676 |     4.0280 |
 | "#tracks with hits added"                       |      4140 |
PrLHCbID2MCParticle_aa6f91fa           INFO Number of counters : 1
 |    Counter                                      |     #     |    sum     | mean/eff^* | rms/err^*  |     min     |     max     |
 | "#removed null MCParticles"                     |    569112 |          0 |     0.0000 |
PrStorePrUTHits_df75b912               INFO Number of counters : 1
 |    Counter                                      |     #     |    sum     | mean/eff^* | rms/err^*  |     min     |     max     |
 | "#banks"                                        |        89 |      19224 |     216.00 |
PrStoreSciFiHits_fb0eba02              INFO Number of counters : 25
 |    Counter                                      |     #     |    sum     | mean/eff^* | rms/err^*  |     min     |     max     |
 | "Average X in T1U"                              |     26216 |   440257.9 |     16.793 |     1225.9 |     -2656.0 |      2656.4 |
 | "Average X in T1V"                              |     26632 |   195916.4 |     7.3564 |     1213.1 |     -2656.3 |      2656.0 |
 | "Average X in T1X1"                             |     26343 |   683907.3 |     25.962 |     1245.5 |     -2646.0 |      2646.1 |
 | "Average X in T1X2"                             |     26741 |   450260.8 |     16.838 |     1202.5 |     -2643.4 |      2646.1 |
 | "Average X in T2U"                              |     25802 |     619820 |     24.022 |     1224.9 |     -2656.3 |      2656.0 |
 | "Average X in T2V"                              |     26388 |   876520.8 |     33.217 |     1217.7 |     -2655.6 |      2655.5 |
 | "Average X in T2X1"                             |     24757 |     105855 |     4.2758 |     1228.8 |     -2646.0 |      2646.2 |
 | "Average X in T2X2"                             |     27009 |   154871.3 |     5.7341 |     1203.8 |     -2646.1 |      2645.4 |
 | "Average X in T3U"                              |     28406 |   578823.8 |     20.377 |     1484.4 |     -3187.0 |      3188.4 |
 | "Average X in T3V"                              |     29187 |   192103.6 |     6.5818 |     1457.6 |     -3188.2 |      3187.8 |
 | "Average X in T3X1"                             |     27622 |   224835.5 |     8.1397 |     1464.3 |     -3175.7 |      3176.0 |
 | "Average X in T3X2"                             |     30227 |   454808.9 |     15.046 |     1452.2 |     -3176.1 |      3176.1 |
 | "Hits in T1U"                                   |       356 |      26216 |     73.640 |     28.499 |      24.000 |      153.00 |
 | "Hits in T1V"                                   |       356 |      26632 |     74.809 |     29.435 |      20.000 |      154.00 |
 | "Hits in T1X1"                                  |       356 |      26343 |     73.997 |     28.722 |      14.000 |      155.00 |
 | "Hits in T1X2"                                  |       356 |      26741 |     75.115 |     29.255 |      17.000 |      183.00 |
 | "Hits in T2U"                                   |       356 |      25802 |     72.478 |     27.862 |      17.000 |      168.00 |
 | "Hits in T2V"                                   |       356 |      26388 |     74.124 |     28.152 |      17.000 |      149.00 |
 | "Hits in T2X1"                                  |       356 |      24757 |     69.542 |     26.646 |      17.000 |      157.00 |
 | "Hits in T2X2"                                  |       356 |      27009 |     75.868 |     29.082 |      18.000 |      162.00 |
 | "Hits in T3U"                                   |       356 |      28406 |     79.792 |     30.863 |      20.000 |      238.00 |
 | "Hits in T3V"                                   |       356 |      29187 |     81.986 |     30.568 |      20.000 |      191.00 |
 | "Hits in T3X1"                                  |       356 |      27622 |     77.590 |     27.482 |      24.000 |      156.00 |
 | "Hits in T3X2"                                  |       356 |      30227 |     84.907 |     30.442 |      22.000 |      168.00 |
 | "Total number of hits"                          |        89 |     325330 |     3655.4 |     1223.4 |      1293.0 |      5701.0 |
PrStoreUTHit_6220b56a                  INFO Number of counters : 1
 |    Counter                                      |     #     |    sum     | mean/eff^* | rms/err^*  |     min     |     max     |
 | "#banks"                                        |        89 |      19224 |     216.00 |
PrTrackAssociator_9128544d             INFO Number of counters : 2
 |    Counter                                      |     #     |    sum     | mean/eff^* | rms/err^*  |     min     |     max     |
 |*"Efficiency"                                    |      4192 |       3895 |( 92.91508 +- 0.3962781)% |
 | "MC particles per track"                        |      3895 |       4594 |     1.1795 |
PrTrackAssociator_c4d4bed9             INFO Number of counters : 2
 |    Counter                                      |     #     |    sum     | mean/eff^* | rms/err^*  |     min     |     max     |
 |*"Efficiency"                                    |      4380 |       4040 |( 92.23744 +- 0.4043142)% |
 | "MC particles per track"                        |      4040 |       4759 |     1.1780 |
PrVeloUT_16284250                      INFO Number of counters : 2
 |    Counter                                      |     #     |    sum     | mean/eff^* | rms/err^*  |     min     |     max     |
 | "#seeds"                                        |        89 |      10933 |     122.84 |
 | "#tracks"                                       |        89 |       8074 |     90.719 |
VPRetinaFullClusterDecoder_f6227b4b    INFO Number of counters : 13
 |    Counter                                      |     #     |    sum     | mean/eff^* | rms/err^*  |     min     |     max     |
 | "Number of banks"                               |        89 |       9256 |     104.00 |
 | "Number of clusters"                            |        89 |     164362 |     1846.8 |
 | "Number of clusters - Mod14"                    |        89 |       3412 |     38.337 |
 | "Number of clusters - Mod15"                    |        89 |       3542 |     39.798 |
 | "Number of clusters - Mod16"                    |        89 |       3453 |     38.798 |
 | "Number of clusters at matrix edge"             |        89 |      16643 |     187.00 |
 | "Number of clusters from SPs w/ neighbors"      |        89 |      34905 |     392.19 |
 | "Number of clusters from isolated SPs"          |        89 |     129171 |     1451.4 |
 | "Number of clusters from overflowing SPs"       |        89 |        286 |     3.2135 |
 | "Number of clusters from overflowing SPs - Mod 14"|        89 |         51 |    0.57303 |
 | "Number of clusters from overflowing SPs - Mod 15"|        89 |          0 |     0.0000 |
 | "Number of clusters from overflowing SPs - Mod 16"|        89 |          7 |   0.078652 |
 | "Number of clusters not self contained"         |        89 |       5824 |     65.438 |
VeloRetinaClusterTrackingSIMD_3c...    INFO Number of counters : 2
 |    Counter                                      |     #     |    sum     | mean/eff^* | rms/err^*  |     min     |     max     |
 | "Nb of Produced Clusters"                       |        89 |     164362 |     1846.8 |
 | "Nb of Produced Tracks"                         |        89 |      17564 |     197.35 |
fromPrForwardTracksFromVeloUTV1T...    INFO Number of counters : 1
 |    Counter                                      |     #     |    sum     | mean/eff^* | rms/err^*  |     min     |     max     |
 | "Nb of converted Tracks"                        |        89 |       4192 |     47.101 |
fromPrForwardTracksFromVeloUTV1T...    INFO Number of counters : 1
 |    Counter                                      |     #     |    sum     | mean/eff^* | rms/err^*  |     min     |     max     |
 | "Nb of converted Tracks"                        |        89 |       4380 |     49.213 |
fromPrUpstreamTracksV1Tracks_9a2...    INFO Number of counters : 1
 |    Counter                                      |     #     |    sum     | mean/eff^* | rms/err^*  |     min     |     max     |
 | "Nb of converted Tracks"                        |        89 |       8074 |     90.719 |
fromPrVeloTracksV1TracksMerger_c...    INFO Number of counters : 1
 |    Counter                                      |     #     |    sum     | mean/eff^* | rms/err^*  |     min     |     max     |
 | "Nb of converted Tracks"                        |        89 |      17564 |     197.35 |
