ApplicationMgr                         INFO Application Manager Finalized successfully
ApplicationMgr                         INFO Application Manager Terminated successfully
HLTControlFlowMgr                      INFO Number of counters : 1
 |    Counter                                      |     #     |    sum     | mean/eff^* | rms/err^*  |     min     |     max     |
 | "Processed events"                              |      1000 |
Unpack__Event_MC_VP_Hits               INFO Number of counters : 1
 |    Counter                                      |     #     |    sum     | mean/eff^* | rms/err^*  |     min     |     max     |
 | "# UnPackedData"                                |      1000 |    1786857 |     1786.9 |     983.48 |      0.0000 |      6846.0 |
VPClusterEfficiency_814083d7           INFO Number of counters : 7
 |    Counter                                      |     #     |    sum     | mean/eff^* | rms/err^*  |     min     |     max     |
 | "# clusters per event"                          |      1000 |    1568740 |     1568.7 |     862.63 |
 | "# pixels per MCHit"                            |   1610383 |    3183294 |     1.9767 |     2.4332 |
 | "# pixels per cluster"                          |   1568740 |    3134346 |     1.9980 |     2.6861 |
 |*"Cluster Efficiency"                            |   1610383 |    1610354 |( 99.99820 +- 0.0003343997)% |
 | "Purity"                                        |   1611707 |    1610343 |    0.99915 |   0.028787 |
 | "Residuals x [mm]"                              |     51651 |   47.10241 | 0.00091194 |   0.092594 |
 | "Residuals y [mm]"                              |    522245 |   303.7758 | 0.00058167 |   0.080002 |
